{
  "title": "File Transfer Service",
  "web": "http://fts3-service.web.cern.ch/",
  "base": "http://fts3-service.web.cern.ch/release/",
  "repositories": {
    "epel": "https://dl.fedoraproject.org/pub/epel/6/x86_64",
    "epel-testing": "https://dl.fedoraproject.org/pub/epel/testing/6/x86_64",
    "production": "https://fts-repo.web.cern.ch/fts-repo/el6/x86_64/",
    "release-candidate": "https://fts-repo.web.cern.ch/fts-repo/rc/el6/x86_64/",
    "development": "https://fts-repo.web.cern.ch/fts-repo/testing/el6/x86_64/"
  },
  "order": ["epel", "epel-testing", "production", "release-candidate", "development"],
  "components": ["fts-server", "fts-rest", "fts-monitoring"]
}
